{
    "KPackageStructure": "KWin/Effect",
    "KPlugin": {
        "Authors": [
            {
                "Email": "kde@privat.broulik.de",
                "Name": "Kai Uwe Broulik",
                "Name[ar]": "كاي أووي بروتيك",
                "Name[be]": "Kai Uwe Broulik",
                "Name[bg]": "Kai Uwe Broulik",
                "Name[ca@valencia]": "Kai Uwe Broulik",
                "Name[ca]": "Kai Uwe Broulik",
                "Name[cs]": "Kai Uwe Broulik",
                "Name[de]": "Kai Uwe Broulik",
                "Name[en_GB]": "Kai Uwe Broulik",
                "Name[eo]": "Kai Uwe Broulik",
                "Name[es]": "Kai Uwe Broulik",
                "Name[et]": "Kai Uwe Broulik",
                "Name[eu]": "Kai Uwe Broulik",
                "Name[fi]": "Kai Uwe Broulik",
                "Name[fr]": "Kai Uwe Broulik",
                "Name[gl]": "Kai Uwe Broulik.",
                "Name[he]": "קאי אווה ברוליק",
                "Name[hu]": "Kai Uwe Broulik",
                "Name[ia]": "Kai Uwe Broulik",
                "Name[is]": "Kai Uwe Broulik",
                "Name[it]": "Kai Uwe Broulik",
                "Name[ja]": "Kai Uwe Broulik",
                "Name[ka]": "კაი უვე ბროულიკი",
                "Name[ko]": "Kai Uwe Broulik",
                "Name[lt]": "Kai Uwe Broulik",
                "Name[lv]": "Kai Uwe Broulik",
                "Name[nl]": "Kai Uwe Broulik",
                "Name[nn]": "Kai Uwe Broulik",
                "Name[pl]": "Kai Uwe Broulik",
                "Name[pt]": "Kai Uwe Broulik",
                "Name[ru]": "Kai Uwe Broulik",
                "Name[sk]": "Kai Uwe Broulik",
                "Name[sl]": "Kai Uwe Broulik",
                "Name[ta]": "காய் ஊவே புரோலிக்",
                "Name[tr]": "Kai Uwe Broulik",
                "Name[uk]": "Kai Uwe Broulik",
                "Name[vi]": "Kai Uwe Broulik",
                "Name[x-test]": "xxKai Uwe Broulikxx",
                "Name[zh_CN]": "Kai Uwe Broulik",
                "Name[zh_TW]": "Kai Uwe Broulik"
            }
        ],
        "Category": "Appearance",
        "Description": "Desaturate windows of unresponsive (frozen) applications",
        "Description[ar]": "أظلم نوافذ التطبيقات غير المستجيبة (متجمدة)",
        "Description[be]": "Абясколерванне праграм, якія не адказваюць (працэсы якіх замарожаныя)",
        "Description[bg]": "Избледняване на прозорците на нереагиращи приложения",
        "Description[ca@valencia]": "Dessatura les finestres de les aplicacions que no responen (congelades)",
        "Description[ca]": "Dessatura les finestres de les aplicacions que no responen (congelades)",
        "Description[cs]": "Ztmaví okna nereagujících (zamrzlých) aplikací",
        "Description[de]": "Verringert die Sättigung von nicht reagierenden, eingefrorenen Anwendungen",
        "Description[en_GB]": "Desaturate windows of unresponsive (frozen) applications",
        "Description[eo]": "Malsaturigi fenestrojn de nerespondemaj (frostigitaj) aplikaĵoj",
        "Description[es]": "Desaturar ventanas de las aplicaciones que no responden (congeladas)",
        "Description[et]": "Reageerimisvõimetute (hangunud) rakenduste akende muutmine kahvatuks",
        "Description[eu]": "Erantzuten ez duten aplikazioen leihoak (izoztutakoak) desasetzea",
        "Description[fi]": "Vähentää jähmettyneiden sovellusikkunoiden värikylläisyyttä",
        "Description[fr]": "Dé-saturer les fenêtres des applications non réactives (gelées)",
        "Description[gl]": "Reducir a saturación das xanelas de aplicacións que non responden (conxeladas).",
        "Description[he]": "החלשת הרוויה של יישומים שאינם מגיבים (קפואים)",
        "Description[hu]": "Nem válaszoló (lefagyott) alkalmazások ablakának elmosása.",
        "Description[ia]": "Destura fenestras de applicationes non responsive (congelate)",
        "Description[is]": "Aflita glugga forrita sem svara ekki (frosin)",
        "Description[it]": "Desatura le finestre delle applicazione che non rispondono (bloccate)",
        "Description[ja]": "応答しない (フリーズした) アプリケーションのウィンドウの彩度を下げます",
        "Description[ka]": "უსიცოცხლო (დაკიდებული) აპლიკაციის ფანჯრების გაუფერულება",
        "Description[ko]": "응답 없는 앱 창을 무채색으로 전환",
        "Description[lt]": "Nusodrina nereaguojančių (užstrigusių) programų langus",
        "Description[lv]": "Nereaģējošus (sasalušus) logus padarīt melnbaltus",
        "Description[nl]": "Verzadiging van vensters van niet responsieve (bevroren) toepassingen verminderen",
        "Description[nn]": "Fjern fargemetting på vindauge på program som ikkje lenger reagerer",
        "Description[pl]": "Odbarwia okna nieodpowiadających (zawieszonych) aplikacji",
        "Description[pt]": "Reduzir a saturação das janelas bloqueadas (sem resposta)",
        "Description[ru]": "Обесцвечивание окон приложений, не отвечающих на запросы",
        "Description[sk]": "Desaturácia okien nereagujúcich (zmrazených) aplikácií",
        "Description[sl]": "Zmanjša nasičenost neodzivnih (zamrznjenih) programov",
        "Description[ta]": "பதிலளிக்காத செயலிகளின் சாளரங்களை நிறமில்லாமல் (கருப்புவெள்ளையாக) காட்டும்",
        "Description[tr]": "Yanıt vermeyen (donmuş) uygulamaların pencerelerini soldur",
        "Description[uk]": "Зменшення насиченості кольорів вікон програм, які не відповідають на запити (повисли)",
        "Description[vi]": "Khử bão hoà các cửa sổ của các ứng dụng không hồi đáp (đơ)",
        "Description[x-test]": "xxDesaturate windows of unresponsive (frozen) applicationsxx",
        "Description[zh_CN]": "降低无响应/已卡死窗口的颜色饱和度",
        "Description[zh_TW]": "降低無回應（凍結）應用程式視窗的飽和度",
        "EnabledByDefault": true,
        "Icon": "preferences-system-windows-effect-frozenapp",
        "Id": "frozenapp",
        "License": "GPL",
        "Name": "Desaturate Unresponsive Applications",
        "Name[ar]": "أظلم التطبيقات غير المستجيبة",
        "Name[be]": "Абясколерванне праграм, якія не адказваюць",
        "Name[bg]": "Избледняване на нереагиращи приложения",
        "Name[ca@valencia]": "Dessatura les aplicacions que no responen",
        "Name[ca]": "Dessatura les aplicacions que no responen",
        "Name[cs]": "Ztmavit nereagující aplikace",
        "Name[de]": "Sättigung von nicht reagierenden Anwendungen verringern",
        "Name[en_GB]": "Desaturate Unresponsive Applications",
        "Name[eo]": "Malsaturi Nerespondemaj Aplikoj",
        "Name[es]": "Desaturar las aplicaciones que no responden",
        "Name[et]": "Reageerimisvõimetute rakenduste muutmine kahvatuks",
        "Name[eu]": "Desasetu erantzuten ez duten aplikazioak",
        "Name[fi]": "Vähennä värikylläisyyttä sovelluksista, jotka eivät vastaa",
        "Name[fr]": "Dé-saturer les applications non réactives",
        "Name[gl]": "Reducir a saturación das aplicacións que non responden",
        "Name[he]": "החלשת הרוויה ליישומים בלתי פעילים",
        "Name[hu]": "Nem válaszoló alkalmazások elhalványítása",
        "Name[ia]": "Desatura applicationes non responsive",
        "Name[is]": "Aflita forrit sem svara ekki",
        "Name[it]": "Desatura le applicazioni che non rispondono",
        "Name[ja]": "応答しないアプリケーションの彩度を下げる",
        "Name[ka]": "უსიცოცხლო აპლიკაციების გაუფერულება",
        "Name[ko]": "응답 없는 앱을 무채색으로 전환",
        "Name[lt]": "Nusodrinti nereaguojančias programas",
        "Name[lv]": "Nereaģējošās programmas padarīt melnbaltas",
        "Name[nl]": "Verzadiging van niet responsieve toepassingen verminderen",
        "Name[nn]": "Fjern fargemetting på ikkje-responsive program",
        "Name[pl]": "Odbarwienie nieodpowiadających aplikacji",
        "Name[pt]": "Reduzir a Saturação das Aplicações Bloqueadas",
        "Name[pt_BR]": "Reduzir saturação de aplicativos que não respondem",
        "Name[ru]": "Обесцвечивание зависших приложений",
        "Name[sk]": "Desaturovať neodpovedajúce aplikácie",
        "Name[sl]": "Zmanjšaj nasičenost neodzivnih programov",
        "Name[ta]": "பதிலளிக்காத செயலிகளை கருப்புவெள்ளையாக்கு",
        "Name[tr]": "Yanıt Vermeyen Uygulamaları Solgunlaştır",
        "Name[uk]": "Зненасичення вікон, які не відповідають на запити",
        "Name[vi]": "Khử bão hoà các ứng dụng không hồi đáp",
        "Name[x-test]": "xxDesaturate Unresponsive Applicationsxx",
        "Name[zh_CN]": "无响应窗口灰化",
        "Name[zh_TW]": "降低無回應應用程式的飽和度"
    },
    "X-KDE-ConfigModule": "kcm_kwin4_genericscripted",
    "X-KDE-Ordering": 60,
    "X-KWin-Config-TranslationDomain": "kwin",
    "X-Plasma-API": "javascript"
}
